…
```
## 
## i Use `spec()` to retrieve the full column specification for this data.
## i Specify the column types or set `show_col_types = FALSE` to quiet this message.
```

```r
nyc_noise_complaints
```

```
## # A tibble: 225,414 x 8
##    created_date        closed_date         location_type    incident_zip city   
##    <dttm>              <dttm>              <chr>                   <dbl> <chr>  
##  1 2015-12-31 00:01:15 2015-12-31 03:48:04 Store/Commercial        10034 NEW YO~
##  2 2015-12-31 00:02:48 2015-12-31 04:36:13 Store/Commercial        10040 NEW YO~
##  3 2015-12-31 00:03:25 2015-12-31 00:40:15 Residential Bui~        10026 NEW YO~
##  4 2015-12-31 00:03:26 2015-12-31 01:53:38 Residential Bui~        11231 BROOKL~
##  5 2015-12-31 00:05:10 2015-12-31 03:49:10 Residential Bui~        10033 NEW YO~
##  6 2015-12-31 00:08:05 2015-12-31 01:59:12 Residential Bui~        10467 BRONX  
##  7 2015-12-31 00:11:40 2015-12-31 06:24:00 Residential Bui~        11230 BROOKL~
##  8 2015-12-31 00:12:13 2015-12-31 00:38:09 Residential Bui~        11215 BROOKL~
##  9 2015-12-31 00:12:37 2015-12-31 05:03:39 Residential Bui~        10463 BRONX  
## 10 2015-12-31 00:14:13 2015-12-31 06:25:40 Store/Commercial        11372 JACKSO~
## # ... with 225,404 more rows, and 3 more variables: borough <chr>,
## #   latitude <dbl>, longitude <dbl>
```
…
```r
# ---------------------------------------------------------------
# Verb #1: Arrange
# ---------------------------------------------------------------

# Arrange does exactly what you think it does - it orders the rows of a data frame by the values of selected columns (?dplyr::arrange)

nyc_noise_complaints %>% 
  arrange(created_date)
```

```
## # A tibble: 225,414 x 8
##    created_date        closed_date         location_type    incident_zip city   
##    <dttm>              <dttm>              <chr>                   <dbl> <chr>  
##  1 2015-12-31 00:01:15 2015-12-31 03:48:04 Store/Commercial        10034 NEW YO~
##  2 2015-12-31 00:02:48 2015-12-31 04:36:13 Store/Commercial        10040 NEW YO~
##  3 2015-12-31 00:03:25 2015-12-31 00:40:15 Residential Bui~        10026 NEW YO~
##  4 2015-12-31 00:03:26 2015-12-31 01:53:38 Residential Bui~        11231 BROOKL~
##  5 2015-12-31 00:05:10 2015-12-31 03:49:10 Residential Bui~        10033 NEW YO~
##  6 2015-12-31 00:08:05 2015-12-31 01:59:12 Residential Bui~        10467 BRONX  
##  7 2015-12-31 00:11:40 2015-12-31 06:24:00 Residential Bui~        11230 BROOKL~
##  8 2015-12-31 00:12:13 2015-12-31 00:38:09 Residential Bui~        11215 BROOKL~
##  9 2015-12-31 00:12:37 2015-12-31 05:03:39 Residential Bui~        10463 BRONX  
## 10 2015-12-31 00:14:13 2015-12-31 06:25:40 Store/Commercial        11372 JACKSO~
## # ... with 225,404 more rows, and 3 more variables: borough <chr>,
## #   latitude <dbl>, longitude <dbl>
```

```r
# This will arrange from smallest to biggest - or earliest to latest. 
# If you want to FLIP the order, use arrange(desc())

nyc_noise_complaints %>%
  arrange(desc(created_date))
```

```
## # A tibble: 225,414 x 8
##    created_date        closed_date         location_type     incident_zip city  
##    <dttm>              <dttm>              <chr>                    <dbl> <chr> 
##  1 2016-12-31 23:58:52 2017-01-01 00:59:52 Residential Buil~        10463 BRONX 
##  2 2016-12-31 23:56:41 2017-01-01 03:49:12 Residential Buil~        10040 NEW Y~
##  3 2016-12-31 23:56:20 2017-01-01 13:34:00 Residential Buil~        11104 SUNNY~
##  4 2016-12-31 23:55:01 2017-01-01 02:05:06 Residential Buil~        10032 NEW Y~
##  5 2016-12-31 23:53:57 2017-01-01 00:01:41 Store/Commercial         10003 NEW Y~
##  6 2016-12-31 23:52:24 2017-01-01 08:29:36 Residential Buil~        11230 BROOK~
##  7 2016-12-31 23:52:18 2017-01-02 03:50:04 Store/Commercial         11377 WOODS~
##  8 2016-12-31 23:48:41 2017-01-01 04:31:48 Residential Buil~        10035 NEW Y~
##  9 2016-12-31 23:48:25 2017-01-01 05:32:23 Residential Buil~        11229 BROOK~
## 10 2016-12-31 23:46:35 2017-01-01 02:05:01 Residential Buil~        10032 NEW Y~
## # ... with 225,404 more rows, and 3 more variables: borough <chr>,
## #   latitude <dbl>, longitude <dbl>
```

```r
# You can also order by multiple columns! 
# Let's order by created_date and incident zip! 

nyc_noise_complaints %>% 
  arrange(created_date,incident_zip)
```

```
## # A tibble: 225,414 x 8
##    created_date        closed_date         location_type    incident_zip city   
##    <dttm>              <dttm>              <chr>                   <dbl> <chr>  
##  1 2015-12-31 00:01:15 2015-12-31 03:48:04 Store/Commercial        10034 NEW YO~
##  2 2015-12-31 00:02:48 2015-12-31 04:36:13 Store/Commercial        10040 NEW YO~
##  3 2015-12-31 00:03:25 2015-12-31 00:40:15 Residential Bui~        10026 NEW YO~
##  4 2015-12-31 00:03:26 2015-12-31 01:53:38 Residential Bui~        11231 BROOKL~
##  5 2015-12-31 00:05:10 2015-12-31 03:49:10 Residential Bui~        10033 NEW YO~
##  6 2015-12-31 00:08:05 2015-12-31 01:59:12 Residential Bui~        10467 BRONX  
##  7 2015-12-31 00:11:40 2015-12-31 06:24:00 Residential Bui~        11230 BROOKL~
##  8 2015-12-31 00:12:13 2015-12-31 00:38:09 Residential Bui~        11215 BROOKL~
##  9 2015-12-31 00:12:37 2015-12-31 05:03:39 Residential Bui~        10463 BRONX  
## 10 2015-12-31 00:14:13 2015-12-31 06:25:40 Store/Commercial        11372 JACKSO~
## # ... with 225,404 more rows, and 3 more variables: borough <chr>,
## #   latitude <dbl>, longitude <dbl>
```

```r
# ^^ This sorts first by date, and then by incident zip code.

# What if we wanted to arrange first by zip code, then location type?

nyc_noise_complaints %>% 
  arrange(incident_zip, location_type)
```

```
## # A tibble: 225,414 x 8
##    created_date        closed_date         location_type     incident_zip city  
##    <dttm>              <dttm>              <chr>                    <dbl> <chr> 
##  1 2016-09-24 15:47:07 2016-09-25 18:39:29 Residential Buil~           83 CENTR~
##  2 2016-02-21 12:15:37 2016-02-21 14:28:01 Street/Sidewalk             83 CENTR~
##  3 2016-02-28 12:47:15 2016-02-28 23:39:58 Street/Sidewalk             83 CENTR~
##  4 2016-02-28 12:57:33 2016-02-28 23:39:57 Street/Sidewalk             83 CENTR~
##  5 2016-02-28 15:47:31 2016-02-28 23:39:55 Street/Sidewalk             83 CENTR~
##  6 2016-03-06 14:54:49 2016-03-06 20:57:54 Street/Sidewalk             83 CENTR~
##  7 2016-03-12 14:24:37 2016-03-12 14:39:24 Street/Sidewalk             83 CENTR~
##  8 2016-03-13 14:20:15 2016-03-13 16:29:58 Street/Sidewalk             83 CENTR~
##  9 2016-03-13 17:10:59 2016-03-13 17:28:36 Street/Sidewalk             83 CENTR~
## 10 2016-03-25 21:14:54 2016-03-26 07:34:18 Street/Sidewalk             83 CENTR~
## # ... with 225,404 more rows, and 3 more variables: borough <chr>,
## #   latitude <dbl>, longitude <dbl>
```
…
```r
# ---------------------------------------------------------------
# Verb #2: Select
# ---------------------------------------------------------------

# Select variables in a data frame - similar to using $ or [,] - but much easier on the eyes

# Select one column...
nyc_noise_complaints %>%
  select(city)
```

```
## # A tibble: 225,414 x 1
##    city           
##    <chr>          
##  1 NEW YORK       
##  2 NEW YORK       
##  3 NEW YORK       
##  4 BROOKLYN       
##  5 NEW YORK       
##  6 BRONX          
##  7 BROOKLYN       
##  8 BROOKLYN       
##  9 BRONX          
## 10 JACKSON HEIGHTS
## # ... with 225,404 more rows
```

```r
# Select a few columns ... 
nyc_noise_complaints %>%
  select(city,borough)
```

```
## # A tibble: 225,414 x 2
##    city            borough  
##    <chr>           <chr>    
##  1 NEW YORK        MANHATTAN
##  2 NEW YORK        MANHATTAN
##  3 NEW YORK        MANHATTAN
##  4 BROOKLYN        BROOKLYN 
##  5 NEW YORK        MANHATTAN
##  6 BRONX           BRONX    
##  7 BROOKLYN        BROOKLYN 
##  8 BROOKLYN        BROOKLYN 
##  9 BRONX           BRONX    
## 10 JACKSON HEIGHTS QUEENS   
## # ... with 225,404 more rows
```

```r
# Maybe select everything but the weird lat/long stuff we're not going to use today
nyc_noise_complaints %>%
  select(-latitude, -longitude)
```

```
## # A tibble: 225,414 x 6
##    created_date        closed_date         location_type    incident_zip city   
##    <dttm>              <dttm>              <chr>                   <dbl> <chr>  
##  1 2015-12-31 00:01:15 2015-12-31 03:48:04 Store/Commercial        10034 NEW YO~
##  2 2015-12-31 00:02:48 2015-12-31 04:36:13 Store/Commercial        10040 NEW YO~
##  3 2015-12-31 00:03:25 2015-12-31 00:40:15 Residential Bui~        10026 NEW YO~
##  4 2015-12-31 00:03:26 2015-12-31 01:53:38 Residential Bui~        11231 BROOKL~
##  5 2015-12-31 00:05:10 2015-12-31 03:49:10 Residential Bui~        10033 NEW YO~
##  6 2015-12-31 00:08:05 2015-12-31 01:59:12 Residential Bui~        10467 BRONX  
##  7 2015-12-31 00:11:40 2015-12-31 06:24:00 Residential Bui~        11230 BROOKL~
##  8 2015-12-31 00:12:13 2015-12-31 00:38:09 Residential Bui~        11215 BROOKL~
##  9 2015-12-31 00:12:37 2015-12-31 05:03:39 Residential Bui~        10463 BRONX  
## 10 2015-12-31 00:14:13 2015-12-31 06:25:40 Store/Commercial        11372 JACKSO~
## # ... with 225,404 more rows, and 1 more variable: borough <chr>
```

```r
# Maybe just reorder the columns because we're feeling ~feisty~ 
nyc_noise_complaints %>% 
  select(location_type, borough, city, incident_zip, closed_date, created_date)
```

```
## # A tibble: 225,414 x 6
##    location_type              borough   city            incident_zip closed_date        
##    <chr>                      <chr>     <chr>                  <dbl> <dttm>             
##  1 Store/Commercial           MANHATTAN NEW YORK               10034 2015-12-31 03:48:04
##  2 Store/Commercial           MANHATTAN NEW YORK               10040 2015-12-31 04:36:13
##  3 Residential Building/House MANHATTAN NEW YORK               10026 2015-12-31 00:40:15
##  4 Residential Building/House BROOKLYN  BROOKLYN               11231 2015-12-31 01:53:38
##  5 Residential Building/House MANHATTAN NEW YORK               10033 2015-12-31 03:49:10
##  6 Residential Building/House BRONX     BRONX                  10467 2015-12-31 01:59:12
##  7 Residential Building/House BROOKLYN  BROOKLYN               11230 2015-12-31 06:24:00
##  8 Residential Building/House BROOKLYN  BROOKLYN               11215 2015-12-31 00:38:09
##  9 Residential Building/House BRONX     BRONX                  10463 2015-12-31 05:03:39
## 10 Store/Commercial           QUEENS    JACKSON HEIGHTS        11372 2015-12-31 06:25:40
## # ... with 225,404 more rows, and 1 more variable: created_date <dttm>
```

```r
# Maybe we just want columns that start with the letter c? 

nyc_noise_complaints %>%
  select(starts_with('c'))
```

```
## # A tibble: 225,414 x 3
##    created_date        closed_date         city           
##    <dttm>              <dttm>              <chr>          
##  1 2015-12-31 00:01:15 2015-12-31 03:48:04 NEW YORK       
##  2 2015-12-31 00:02:48 2015-12-31 04:36:13 NEW YORK       
##  3 2015-12-31 00:03:25 2015-12-31 00:40:15 NEW YORK       
##  4 2015-12-31 00:03:26 2015-12-31 01:53:38 BROOKLYN       
##  5 2015-12-31 00:05:10 2015-12-31 03:49:10 NEW YORK       
##  6 2015-12-31 00:08:05 2015-12-31 01:59:12 BRONX          
##  7 2015-12-31 00:11:40 2015-12-31 06:24:00 BROOKLYN       
##  8 2015-12-31 00:12:13 2015-12-31 00:38:09 BROOKLYN       
##  9 2015-12-31 00:12:37 2015-12-31 05:03:39 BRONX          
## 10 2015-12-31 00:14:13 2015-12-31 06:25:40 JACKSON HEIGHTS
## # ... with 225,404 more rows
```
…
```r
# ---------------------------------------------------------------
# Verb #3: Filter
# ---------------------------------------------------------------

# Filter is just the row-wise version of Select: it gives you only the rows you want! 

# Let's just look at stuff in New York 

nyc_noise_complaints %>% 
  filter(city == 'NEW YORK')
```

```
## # A tibble: 64,112 x 8
##    created_date        closed_date         location_type      incident_zip city 
##    <dttm>              <dttm>              <chr>                     <dbl> <chr>
##  1 2015-12-31 00:01:15 2015-12-31 03:48:04 Store/Commercial          10034 NEW ~
##  2 2015-12-31 00:02:48 2015-12-31 04:36:13 Store/Commercial          10040 NEW ~
##  3 2015-12-31 00:03:25 2015-12-31 00:40:15 Residential Build~        10026 NEW ~
##  4 2015-12-31 00:05:10 2015-12-31 03:49:10 Residential Build~        10033 NEW ~
##  5 2015-12-31 00:16:28 2015-12-31 00:59:23 Store/Commercial          10033 NEW ~
##  6 2015-12-31 00:18:04 2015-12-31 03:49:12 Store/Commercial          10034 NEW ~
##  7 2015-12-31 00:19:43 2015-12-31 00:29:37 Club/Bar/Restaura~        10027 NEW ~
##  8 2015-12-31 00:28:24 2015-12-31 05:19:00 Club/Bar/Restaura~        10025 NEW ~
##  9 2015-12-31 00:31:59 2015-12-31 02:34:08 Residential Build~        10021 NEW ~
## 10 2015-12-31 00:35:11 2015-12-31 05:36:35 Residential Build~        10065 NEW ~
## # ... with 64,102 more rows, and 3 more variables: borough <chr>,
## #   latitude <dbl>, longitude <dbl>
```

```r
  # Note the == 

# Maybe let's look at stuff in New York that are JUST in Residential Buildings 

nyc_noise_complaints %>% 
  filter(city == 'NEW YORK' & location_type == 'Residential Building/House')
```

```
## # A tibble: 31,877 x 8
##    created_date        closed_date         location_type      incident_zip city 
##    <dttm>              <dttm>              <chr>                     <dbl> <chr>
##  1 2015-12-31 00:03:25 2015-12-31 00:40:15 Residential Build~        10026 NEW ~
##  2 2015-12-31 00:05:10 2015-12-31 03:49:10 Residential Build~        10033 NEW ~
##  3 2015-12-31 00:31:59 2015-12-31 02:34:08 Residential Build~        10021 NEW ~
##  4 2015-12-31 00:35:11 2015-12-31 05:36:35 Residential Build~        10065 NEW ~
##  5 2015-12-31 00:36:40 2015-12-31 06:22:27 Residential Build~        10019 NEW ~
##  6 2015-12-31 00:50:53 2015-12-31 06:39:27 Residential Build~        10025 NEW ~
##  7 2015-12-31 00:58:06 2015-12-31 02:45:22 Residential Build~        10033 NEW ~
##  8 2015-12-31 01:02:14 2015-12-31 01:34:03 Residential Build~        10009 NEW ~
##  9 2015-12-31 01:04:25 2015-12-31 02:05:54 Residential Build~        10011 NEW ~
## 10 2015-12-31 01:12:26 2015-12-31 01:32:49 Residential Build~        10032 NEW ~
## # ... with 31,867 more rows, and 3 more variables: borough <chr>,
## #   latitude <dbl>, longitude <dbl>
```

```r
# You can write the above in an easier way if you like because you don't like using & 

nyc_noise_complaints %>%
  filter(city == 'NEW YORK',
         location_type == 'Residential Building/House')
```

```
## # A tibble: 31,877 x 8
##    created_date        closed_date         location_type      incident_zip city 
##    <dttm>              <dttm>              <chr>                     <dbl> <chr>
##  1 2015-12-31 00:03:25 2015-12-31 00:40:15 Residential Build~        10026 NEW ~
##  2 2015-12-31 00:05:10 2015-12-31 03:49:10 Residential Build~        10033 NEW ~
##  3 2015-12-31 00:31:59 2015-12-31 02:34:08 Residential Build~        10021 NEW ~
##  4 2015-12-31 00:35:11 2015-12-31 05:36:35 Residential Build~        10065 NEW ~
##  5 2015-12-31 00:36:40 2015-12-31 06:22:27 Residential Build~        10019 NEW ~
##  6 2015-12-31 00:50:53 2015-12-31 06:39:27 Residential Build~        10025 NEW ~
##  7 2015-12-31 00:58:06 2015-12-31 02:45:22 Residential Build~        10033 NEW ~
##  8 2015-12-31 01:02:14 2015-12-31 01:34:03 Residential Build~        10009 NEW ~
##  9 2015-12-31 01:04:25 2015-12-31 02:05:54 Residential Build~        10011 NEW ~
## 10 2015-12-31 01:12:26 2015-12-31 01:32:49 Residential Build~        10032 NEW ~
## # ... with 31,867 more rows, and 3 more variables: borough <chr>,
## #   latitude <dbl>, longitude <dbl>
```

```r
# Maybe let's look at stuff in New York OR in Residential Buildings 

nyc_noise_complaints %>% 
  filter(city == 'NEW YORK' | location_type == 'Residential Building/House')
```

```
## # A tibble: 178,275 x 8
##    created_date        closed_date         location_type      incident_zip city 
##    <dttm>              <dttm>              <chr>                     <dbl> <chr>
##  1 2015-12-31 00:01:15 2015-12-31 03:48:04 Store/Commercial          10034 NEW ~
##  2 2015-12-31 00:02:48 2015-12-31 04:36:13 Store/Commercial          10040 NEW ~
##  3 2015-12-31 00:03:25 2015-12-31 00:40:15 Residential Build~        10026 NEW ~
##  4 2015-12-31 00:03:26 2015-12-31 01:53:38 Residential Build~        11231 BROO~
##  5 2015-12-31 00:05:10 2015-12-31 03:49:10 Residential Build~        10033 NEW ~
##  6 2015-12-31 00:08:05 2015-12-31 01:59:12 Residential Build~        10467 BRONX
##  7 2015-12-31 00:11:40 2015-12-31 06:24:00 Residential Build~        11230 BROO~
##  8 2015-12-31 00:12:13 2015-12-31 00:38:09 Residential Build~        11215 BROO~
##  9 2015-12-31 00:12:37 2015-12-31 05:03:39 Residential Build~        10463 BRONX
## 10 2015-12-31 00:15:36 2015-12-31 02:58:09 Residential Build~        11213 BROO~
## # ... with 178,265 more rows, and 3 more variables: borough <chr>,
## #   latitude <dbl>, longitude <dbl>
```

```r
# Because the dates were so helpfull stored as time, we can filter on them like numbers! 
# Let's look for everything in Manhattan that happened BEFORE the fourth of july in 2016 

nyc_noise_complaints %>%
  filter(borough == 'MANHATTAN',
         created_date < as.Date('2016-07-04'))
```

```
## # A tibble: 32,966 x 8
##    created_date        closed_date         location_type      incident_zip city 
##    <dttm>              <dttm>              <chr>                     <dbl> <chr>
##  1 2015-12-31 00:01:15 2015-12-31 03:48:04 Store/Commercial          10034 NEW ~
##  2 2015-12-31 00:02:48 2015-12-31 04:36:13 Store/Commercial          10040 NEW ~
##  3 2015-12-31 00:03:25 2015-12-31 00:40:15 Residential Build~        10026 NEW ~
##  4 2015-12-31 00:05:10 2015-12-31 03:49:10 Residential Build~        10033 NEW ~
##  5 2015-12-31 00:16:28 2015-12-31 00:59:23 Store/Commercial          10033 NEW ~
##  6 2015-12-31 00:18:04 2015-12-31 03:49:12 Store/Commercial          10034 NEW ~
##  7 2015-12-31 00:19:43 2015-12-31 00:29:37 Club/Bar/Restaura~        10027 NEW ~
##  8 2015-12-31 00:28:24 2015-12-31 05:19:00 Club/Bar/Restaura~        10025 NEW ~
##  9 2015-12-31 00:31:59 2015-12-31 02:34:08 Residential Build~        10021 NEW ~
## 10 2015-12-31 00:35:11 2015-12-31 05:36:35 Residential Build~        10065 NEW ~
## # ... with 32,956 more rows, and 3 more variables: borough <chr>,
## #   latitude <dbl>, longitude <dbl>
```
…
