…
```
## [1] 826
```

```r
# What if I wanted to know how many people identified as agnostic OR atheist but NOT catholic and made at least 75k a year? 
# ...it would be annoying!
# So let's tidy this data up! 

relig_income %>% 
  pivot_longer(!religion, names_to = "income", values_to = "count")
```

```
## # A tibble: 180 x 3
##    religion income             count
##    <chr>    <chr>              <dbl>
##  1 Agnostic <$10k                 27
##  2 Agnostic $10-20k               34
##  3 Agnostic $20-30k               60
##  4 Agnostic $30-40k               81
##  5 Agnostic $40-50k               76
##  6 Agnostic $50-75k              137
##  7 Agnostic $75-100k             122
##  8 Agnostic $100-150k            109
##  9 Agnostic >150k                 84
## 10 Agnostic Don't know/refused    96
## # ... with 170 more rows
```
…
```r
# ---------------------------------------------------------------
# Verb #2: pivot_wider
# ---------------------------------------------------------------

data(us_rent_income)
us_rent_income
```

```
## # A tibble: 104 x 5
##    GEOID NAME       variable estimate   moe
##    <chr> <chr>      <chr>       <dbl> <dbl>
##  1 01    Alabama    income      24476   136
##  2 01    Alabama    rent          747     3
##  3 02    Alaska     income      32940   508
##  4 02    Alaska     rent         1200    13
##  5 04    Arizona    income      27517   148
##  6 04    Arizona    rent          972     4
##  7 05    Arkansas   income      23789   165
##  8 05    Arkansas   rent          709     5
##  9 06    California income      29454   109
## 10 06    California rent         1358     3
## # ... with 94 more rows
```

```r
# hmmmm, this is not tidy! Let's tidy it up. 

us_rent_income %>%
  pivot_wider(names_from = variable, values_from = c(estimate, moe))
```

```
## # A tibble: 52 x 6
##    GEOID NAME                 estimate_income estimate_rent moe_income moe_rent
##    <chr> <chr>                          <dbl>         <dbl>      <dbl>    <dbl>
##  1 01    Alabama                        24476           747        136        3
##  2 02    Alaska                         32940          1200        508       13
##  3 04    Arizona                        27517           972        148        4
##  4 05    Arkansas                       23789           709        165        5
##  5 06    California                     29454          1358        109        3
##  6 08    Colorado                       32401          1125        109        5
##  7 09    Connecticut                    35326          1123        195        5
##  8 10    Delaware                       31560          1076        247       10
##  9 11    District of Columbia           43198          1424        681       17
## 10 12    Florida                        25952          1077         70        3
## # ... with 42 more rows
```
…
```r
# ---------------------------------------------------------------
# General Tidy Data Practice! 
# ---------------------------------------------------------------

data(billboard)
billboard
```

```
## # A tibble: 317 x 79
##    artist   track   date.entered   wk1   wk2   wk3   wk4   wk5   wk6   wk7   wk8
##    <chr>    <chr>   <date>       <dbl> <dbl> <dbl> <dbl> <dbl> <dbl> <dbl> <dbl>
##  1 2 Pac    Baby D~ 2000-02-26      87    82    72    77    87    94    99    NA
##  2 2Ge+her  The Ha~ 2000-09-02      91    87    92    NA    NA    NA    NA    NA
##  3 3 Doors~ Krypto~ 2000-04-08      81    70    68    67    66    57    54    53
##  4 3 Doors~ Loser   2000-10-21      76    76    72    69    67    65    55    59
##  5 504 Boyz Wobble~ 2000-04-15      57    34    25    17    17    31    36    49
##  6 98^0     Give M~ 2000-08-19      51    39    34    26    26    19     2     2
##  7 A*Teens  Dancin~ 2000-07-08      97    97    96    95   100    NA    NA    NA
##  8 Aaliyah  I Don'~ 2000-01-29      84    62    51    41    38    35    35    38
##  9 Aaliyah  Try Ag~ 2000-03-18      59    53    38    28    21    18    16    14
## 10 Adams, ~ Open M~ 2000-08-26      76    76    74    69    68    67    61    58
## # ... with 307 more rows, and 68 more variables: wk9 <dbl>, wk10 <dbl>,
## #   wk11 <dbl>, wk12 <dbl>, wk13 <dbl>, wk14 <dbl>, wk15 <dbl>, wk16 <dbl>,
## #   wk17 <dbl>, wk18 <dbl>, wk19 <dbl>, wk20 <dbl>, wk21 <dbl>, wk22 <dbl>,
## #   wk23 <dbl>, wk24 <dbl>, wk25 <dbl>, wk26 <dbl>, wk27 <dbl>, wk28 <dbl>,
## #   wk29 <dbl>, wk30 <dbl>, wk31 <dbl>, wk32 <dbl>, wk33 <dbl>, wk34 <dbl>,
## #   wk35 <dbl>, wk36 <dbl>, wk37 <dbl>, wk38 <dbl>, wk39 <dbl>, wk40 <dbl>,
## #   wk41 <dbl>, wk42 <dbl>, wk43 <dbl>, wk44 <dbl>, wk45 <dbl>, wk46 <dbl>, ...
```

```r
# Let's clean this up! 

billboard %>% 
  pivot_longer(
    wk1:wk76
  )
```

```
## # A tibble: 24,092 x 5
##    artist track                   date.entered name  value
##    <chr>  <chr>                   <date>       <chr> <dbl>
##  1 2 Pac  Baby Don't Cry (Keep... 2000-02-26   wk1      87
##  2 2 Pac  Baby Don't Cry (Keep... 2000-02-26   wk2      82
##  3 2 Pac  Baby Don't Cry (Keep... 2000-02-26   wk3      72
##  4 2 Pac  Baby Don't Cry (Keep... 2000-02-26   wk4      77
##  5 2 Pac  Baby Don't Cry (Keep... 2000-02-26   wk5      87
##  6 2 Pac  Baby Don't Cry (Keep... 2000-02-26   wk6      94
##  7 2 Pac  Baby Don't Cry (Keep... 2000-02-26   wk7      99
##  8 2 Pac  Baby Don't Cry (Keep... 2000-02-26   wk8      NA
##  9 2 Pac  Baby Don't Cry (Keep... 2000-02-26   wk9      NA
## 10 2 Pac  Baby Don't Cry (Keep... 2000-02-26   wk10     NA
## # ... with 24,082 more rows
```

```r
billboard %>% 
  pivot_longer(
    # this identifies which rows we want to pivot!
    wk1:wk76, 
    # this tells us the new name of the column
    names_to = "week", 
    # this tells us which values to focus on!
    values_to = "rank"
  )
```

```
## # A tibble: 24,092 x 5
##    artist track                   date.entered week   rank
##    <chr>  <chr>                   <date>       <chr> <dbl>
##  1 2 Pac  Baby Don't Cry (Keep... 2000-02-26   wk1      87
##  2 2 Pac  Baby Don't Cry (Keep... 2000-02-26   wk2      82
##  3 2 Pac  Baby Don't Cry (Keep... 2000-02-26   wk3      72
##  4 2 Pac  Baby Don't Cry (Keep... 2000-02-26   wk4      77
##  5 2 Pac  Baby Don't Cry (Keep... 2000-02-26   wk5      87
##  6 2 Pac  Baby Don't Cry (Keep... 2000-02-26   wk6      94
##  7 2 Pac  Baby Don't Cry (Keep... 2000-02-26   wk7      99
##  8 2 Pac  Baby Don't Cry (Keep... 2000-02-26   wk8      NA
##  9 2 Pac  Baby Don't Cry (Keep... 2000-02-26   wk9      NA
## 10 2 Pac  Baby Don't Cry (Keep... 2000-02-26   wk10     NA
## # ... with 24,082 more rows
```
…
# Let's answer a couple of questions about the data:

# Which artists had the best average rank in this data set?

billboard_cleaned %>% 
  group_by(artist) %>% 
  summarise(avg_by_artist = mean(rank)) %>% 
  arrange(avg_by_artist)
```

```
## # A tibble: 228 x 2
##    artist                           avg_by_artist
##    <chr>                                    <dbl>
##  1 "Santana"                                 10.5
##  2 "Elliott, Missy \"Misdemeanor\""          14.3
##  3 "matchbox twenty"                         18.6
##  4 "N'Sync"                                  18.6
##  5 "Janet"                                   19.4
##  6 "Destiny's Child"                         19.8
##  7 "Ruff Endz"                               19.9
##  8 "Pink"                                    20.1
##  9 "Aguilera, Christina"                     21.1
## 10 "Madonna"                                 21.5
## # ... with 218 more rows
```

```r
# Which artist was in the charts for the longest time?

billboard_cleaned %>% 
  group_by(artist) %>% 
  summarise(count = n()) %>% 
  arrange(desc(count)) 
```

```
## # A tibble: 228 x 2
##    artist              count
##    <chr>               <int>
##  1 Creed                 104
##  2 Lonestar               95
##  3 Destiny's Child        92
##  4 N'Sync                 74
##  5 Sisqo                  74
##  6 3 Doors Down           73
##  7 Jay-Z                  73
##  8 Aguilera, Christina    67
##  9 Hill, Faith            67
## 10 Houston, Whitney       67
## # ... with 218 more rows
```
…
```
## `summarise()` has grouped output by 'artist'. You can override using the `.groups` argument.
```

```
## # A tibble: 228 x 2
##    artist               count
##    <chr>                <int>
##  1 Jay-Z                    5
##  2 Dixie Chicks, The        4
##  3 Houston, Whitney         4
##  4 Aguilera, Christina      3
##  5 Backstreet Boys, The     3
##  6 Braxton, Toni            3
##  7 Destiny's Child          3
##  8 DMX                      3
##  9 Eminem                   3
## 10 Jackson, Alan            3
## # ... with 218 more rows
```

```r
billboard_cleaned %>% 
  group_by(artist) %>% 
  summarise(count = n()) %>% 
  arrange(desc(count))
```

```
## # A tibble: 228 x 2
##    artist              count
##    <chr>               <int>
##  1 Creed                 104
##  2 Lonestar               95
##  3 Destiny's Child        92
##  4 N'Sync                 74
##  5 Sisqo                  74
##  6 3 Doors Down           73
##  7 Jay-Z                  73
##  8 Aguilera, Christina    67
##  9 Hill, Faith            67
## 10 Houston, Whitney       67
## # ... with 218 more rows
```
…
# what's wrong with this dataset? 

# one way to fix it! 

grades %>% 
  pivot_longer(
    Fall:Winter,
    names_to = "Season",
    values_to = "Score"
  )
```

```
## # A tibble: 36 x 5
##       ID Test     Year Season Score
##    <dbl> <chr>   <dbl> <chr>  <dbl>
##  1     1 Math     2008 Fall      15
##  2     1 Math     2008 Spring    16
##  3     1 Math     2008 Winter    19
##  4     1 Math     2009 Fall      12
##  5     1 Math     2009 Spring    13
##  6     1 Math     2009 Winter    27
##  7     1 Writing  2008 Fall      22
##  8     1 Writing  2008 Spring    22
##  9     1 Writing  2008 Winter    24
## 10     1 Writing  2009 Fall      10
## # ... with 26 more rows
```
…
