week 2 - class 2 - Intro to R
…
# View(bob_ross_data[,-c(1,2)]) # returns and views the data set without the first two columns
# View(bob_ross_data[,-c(1,2)]) # returns and views only the first two columns of the data frame
# View(bob_ross_data[c(1,)]) # returns and views only the first two rows of the data frame
# colSums() # returns the sum of columns of a data frame

# The following two commands return the same thing:

bob_ross_data[,2]

## # A tibble: 403 x 1
##    TITLE                    
##    <chr>                    
##  1 "\"A WALK IN THE WOODS\""
##  2 "\"MT. MCKINLEY\""       
##  3 "\"EBONY SUNSET\""       
##  4 "\"WINTER MIST\""        
##  5 "\"QUIET STREAM\""       
##  6 "\"WINTER MOON\""        
##  7 "\"AUTUMN MOUNTAINS\""   
##  8 "\"PEACEFUL VALLEY\""    
##  9 "\"SEASCAPE\""           
## 10 "\"MOUNTAIN LAKE\""      
## # ... with 393 more rows
…
## Warning in read_fun(path = enc2native(normalizePath(path)), sheet_i = sheet, :
## Expecting numeric in E7223 / R7223C5: got 'Text'

## Warning in read_fun(path = enc2native(normalizePath(path)), sheet_i = sheet, :
## Expecting numeric in F7223 / R7223C6: got 'Text'

## Warning in read_fun(path = enc2native(normalizePath(path)), sheet_i = sheet, :
## Expecting numeric in E7224 / R7224C5: got 'Text'

## Warning in read_fun(path = enc2native(normalizePath(path)), sheet_i = sheet, :
## Expecting numeric in F7224 / R7224C6: got 'Text'

climate_change_data

## # A tibble: 13,512 x 28
##    `Country code` `Country name`   `Series code` `Series name`    SCALE Decimals
##    <chr>          <chr>            <chr>         <chr>            <dbl>    <dbl>
##  1 ABW            Aruba            AG.LND.EL5M.~ Land area below~     0        1
##  2 ADO            Andorra          AG.LND.EL5M.~ Land area below~     0        1
##  3 AFG            Afghanistan      AG.LND.EL5M.~ Land area below~     0        1
##  4 AGO            Angola           AG.LND.EL5M.~ Land area below~     0        1
##  5 ALB            Albania          AG.LND.EL5M.~ Land area below~     0        1
##  6 ARE            United Arab Emi~ AG.LND.EL5M.~ Land area below~     0        1
##  7 ARG            Argentina        AG.LND.EL5M.~ Land area below~     0        1
##  8 ARM            Armenia          AG.LND.EL5M.~ Land area below~     0        1
##  9 ASM            American Samoa   AG.LND.EL5M.~ Land area below~     0        1
## 10 ATG            Antigua and Bar~ AG.LND.EL5M.~ Land area below~     0        1
## # ... with 13,502 more rows, and 22 more variables: 1990 <chr>, 1991 <chr>,
## #   1992 <chr>, 1993 <chr>, 1994 <chr>, 1995 <chr>, 1996 <chr>, 1997 <chr>,
## #   1998 <chr>, 1999 <chr>, 2000 <chr>, 2001 <chr>, 2002 <chr>, 2003 <chr>,
## #   2004 <chr>, 2005 <chr>, 2006 <chr>, 2007 <chr>, 2008 <chr>, 2009 <chr>,
## #   2010 <chr>, 2011 <chr>
…
